<?xml version="1.0" encoding="UTF-8" standalone="no"?>
<!-- Created with Inkscape (http://www.inkscape.org/) -->

<svg
   xmlns:dc="http://purl.org/dc/elements/1.1/"
   xmlns:cc="http://creativecommons.org/ns#"
   xmlns:rdf="http://www.w3.org/1999/02/22-rdf-syntax-ns#"
   xmlns:svg="http://www.w3.org/2000/svg"
   xmlns="http://www.w3.org/2000/svg"
   xmlns:sodipodi="http://sodipodi.sourceforge.net/DTD/sodipodi-0.dtd"
   xmlns:inkscape="http://www.inkscape.org/namespaces/inkscape"
   width="190mm"
   height="50mm"
   viewBox="0 0 190 50"
   version="1.1"
   id="svg8"
   inkscape:version="0.92.4 (5da689c313, 2019-01-14)"
   sodipodi:docname="logo.svg"
   inkscape:export-filename="C:\Users\Servicio al Cliente\bitmap.png"
   inkscape:export-xdpi="126"
   inkscape:export-ydpi="126">
  <defs
     id="defs2" />
  <sodipodi:namedview
     id="base"
     pagecolor="#ffffff"
     bordercolor="#666666"
     borderopacity="1.0"
     inkscape:pageopacity="0.0"
     inkscape:pageshadow="2"
     inkscape:zoom="0.7"
     inkscape:cx="290.717"
     inkscape:cy="229.45077"
     inkscape:document-units="mm"
     inkscape:current-layer="layer1"
     showgrid="false"
     inkscape:window-width="1366"
     inkscape:window-height="705"
     inkscape:window-x="-8"
     inkscape:window-y="-8"
     inkscape:window-maximized="1" />
  <metadata
     id="metadata5">
    <rdf:RDF>
      <cc:Work
         rdf:about="">
        <dc:format>image/svg+xml</dc:format>
        <dc:type
           rdf:resource="http://purl.org/dc/dcmitype/StillImage" />
        <dc:title></dc:title>
      </cc:Work>
    </rdf:RDF>
  </metadata>
  <g
     inkscape:label="Capa 1"
     inkscape:groupmode="layer"
     id="layer1"
     transform="translate(0,-247)">
    <rect
       style="opacity:1;fill:#f1f1f1;fill-opacity:1;stroke:none;stroke-width:5.17239332;stroke-linecap:round;stroke-linejoin:round;stroke-miterlimit:4;stroke-dasharray:none;stroke-dashoffset:0;stroke-opacity:1;paint-order:stroke fill markers"
       id="rect896"
       width="45"
       height="45"
       x="3.9146204"
       y="249.70459" />
    <path
       style="fill:#16284b;fill-opacity:1;stroke:none;stroke-width:0.26458332px;stroke-linecap:butt;stroke-linejoin:miter;stroke-opacity:1"
       d="m 48.777838,279.85879 c -0.31852,-0.39025 -18.46163,1.09932 -18.8272,0.85265 -3.38227,-2.28224 -6.98309,-4.67078 -5.64676,-8.50666 1.422,0.20146 2.38885,0.84169 3.2128,2.07886 8.80106,0.29236 9.44863,-4.89632 9.5439,-10.20535 2.45758,-0.82613 1.9902,-2.43234 2.36235,-3.59077 -0.0135,-2.55375 -0.58018,-5.97266 -9.26042,-4.44122 -1.43136,-1.09208 -3.16787,-1.2687 -5.10267,-0.85045 -2.25071,-1.8983 -4.80536,-1.97294 -7.55953,-0.85044 -15.0975655,16.62587 -7.5206597,34.79881 -4.53571,40.25446 l 35.77858,0.10477 z"
       id="path861"
       inkscape:connector-curvature="0"
       sodipodi:nodetypes="cscccccccccc" />
    <path
       style="fill:#ffffff;fill-opacity:1;stroke:none;stroke-width:0.19647405px;stroke-linecap:butt;stroke-linejoin:miter;stroke-opacity:1"
       d="m 22.570938,268.2776 0.80205,-0.57943 -0.24283,0.39464 1.21807,-0.46572 0.0267,0.16121 0.79189,-0.33573 -0.16767,0.14238 0.65722,-0.1777 0.38151,0.28396 0.31562,-0.26123 0.39183,0.22155 0.32225,-0.24159 0.46543,0.25406 0.32888,-0.22195 0.5089,0.28987 0.42305,-0.31422 0.61865,0.52211 0.35607,-0.32699 0.84019,0.43575 0.37923,-0.35 1.01762,0.49715 0.17267,-0.59164 1.10817,0.48686 -0.0113,-0.67268 1.08987,0.89679 0.13928,0.41241 -2.68093,0.1191 -9.65211,-0.0221 z"
       id="path836-6"
       inkscape:connector-curvature="0"
       sodipodi:nodetypes="ccccccccccccccccccccccccccccc" />
    <path
       style="fill:#ffffff;fill-opacity:1;stroke:none;stroke-width:0.26458332px;stroke-linecap:butt;stroke-linejoin:miter;stroke-opacity:1"
       d="m 23.518468,265.4422 1.00227,0.10023 -0.40091,-0.60136 0.90203,0.63477 0.53454,-0.3675 0.40091,0.50113 0.33409,-0.30068 0.20045,0.26727 0.86862,-0.63476 -0.13363,0.46772 0.90203,-0.53454 -0.13363,0.43431 0.96885,-0.60135 -0.13363,0.4009 1.00226,-0.66817 v 0.53454 l 1.03567,-1.06908 -0.0668,0.56795 1.30294,-0.96886 -0.0334,0.60136 1.46998,-1.10249 -0.16704,1.03567 1.57021,-1.10248 -0.33409,1.20271 1.40316,-1.77066 v -0.70158 l -2.90081,0.30403 -9.92812,2.93661 z"
       id="path836"
       inkscape:connector-curvature="0" />
    <path
       style="fill:#619e43;fill-opacity:1;stroke:#15274d;stroke-width:0.26458332px;stroke-linecap:butt;stroke-linejoin:miter;stroke-opacity:1"
       d="m 12.627238,285.11991 c 1.16037,-4.80759 -1.85474,-9.29399 3.60814,-14.43255 -0.83225,-1.52062 0.0232,-2.70369 0.93544,-3.87541 -0.008,2.25557 0.004,4.50712 1.73726,6.41447 2.15158,-2.60129 5.46597,-2.87698 9.75533,-1.20272 5.25408,-0.83169 5.79834,-2.04799 5.89614,-3.10463 -5.28974,1.11158 -5.10915,-0.63934 -8.07205,-1.27289 -1.7188,0.22768 -4.61672,1.81587 -4.88381,0.36848 -0.17137,-2.03461 1.61122,-2.63498 2.51614,-3.07359 5.48514,0.23432 6.35079,-1.85308 8.99268,-2.86979 1.29929,0.0314 2.76113,0.14412 3.83626,0.0635 -0.15998,-3.19378 -0.66195,-6.10775 -7.61719,-3.74177 -1.3373,-0.65063 -3.13396,-0.89932 -5.47902,-0.66817 1.23789,-0.76977 -0.20051,-1.19643 -3.87541,-1.33635 -0.83631,1.10642 -2.01622,1.69743 -2.40542,3.4745 -0.29869,0.70261 0.85217,0.99105 1.33635,1.46998 -0.75942,-0.30858 -1.71168,-0.3279 -2.00453,-1.33634 -8.8720588,13.16155 -4.63129,17.89343 -4.27631,25.12332 z"
       id="path826"
       inkscape:connector-curvature="0"
       sodipodi:nodetypes="cccccccccccccccccc" />
    <path
       style="fill:#16284b;fill-opacity:1;stroke:#15284b;stroke-width:0.26458332px;stroke-linecap:butt;stroke-linejoin:miter;stroke-opacity:1"
       d="m 21.246678,261.46657 c 1.01658,-1.04525 2.02934,-2.15917 3.10701,-2.10475 l -3.60814,-1.23612 -1.36976,1.5368 c 1.57043,-1.46083 2.60588,0.70158 2.60588,0.70158 z"
       id="path828"
       inkscape:connector-curvature="0"
       sodipodi:nodetypes="cccccc" />
    <path
       style="fill:#16284b;fill-opacity:1;stroke:#16284b;stroke-width:0.26458332px;stroke-linecap:butt;stroke-linejoin:miter;stroke-opacity:1"
       d="m 35.244918,259.12796 -0.73499,-0.4009 -0.83521,-0.0668 0.10022,-0.50113 c 0,0 0.50113,-0.20045 0.80181,-0.0668 0.30068,0.13363 0.30068,0.13363 0.30068,0.13363 z"
       id="path830"
       inkscape:connector-curvature="0" />
    <path
       style="fill:#16284b;fill-opacity:1;stroke:#16284b;stroke-width:0.26458332px;stroke-linecap:butt;stroke-linejoin:miter;stroke-opacity:1"
       d="m 27.560918,259.39523 2.77293,-0.0334 1.13589,-0.66817 -1.67043,0.43431 z"
       id="path832"
       inkscape:connector-curvature="0" />
    <path
       style="fill:#ffffff;fill-opacity:1;stroke:none;stroke-width:0.26458332px;stroke-linecap:butt;stroke-linejoin:miter;stroke-opacity:1"
       d="m 24.024968,259.07784 -2.20933,-0.70833 0.0334,0.78363 c 0.36449,0.57907 1.42143,0.53174 2.17592,-0.0753 z"
       id="path863"
       inkscape:connector-curvature="0"
       sodipodi:nodetypes="cccc" />
    <path
       style="fill:#619e43;fill-opacity:1;stroke:#16284b;stroke-width:0.26458332px;stroke-linecap:butt;stroke-linejoin:miter;stroke-opacity:1"
       d="m 25.440528,281.85108 c -2.73906,-2.90384 -2.97681,-6.23385 -3.87541,-9.15398 1.1e-4,3.30657 -2.22271,10.66528 0,13.16303 z"
       id="path865"
       inkscape:connector-curvature="0"
       sodipodi:nodetypes="cccc" />
    <path
       style="opacity:1;fill:#619e43;fill-opacity:1;stroke:#16284b;stroke-width:6.10554123;stroke-linecap:round;stroke-linejoin:round;stroke-miterlimit:4;stroke-dasharray:none;stroke-dashoffset:0;stroke-opacity:1;paint-order:stroke fill markers"
       d="m 38.100608,274.13585 -10.11914,10.72486 2.59074,3.66779 8.44387,-0.0669 5.93634,-5.75916 z"
       id="rect869"
       inkscape:connector-curvature="0"
       sodipodi:nodetypes="cccccc" />
    <rect
       style="opacity:1;fill:#619e43;fill-opacity:1;stroke:none;stroke-width:6.32028627;stroke-linecap:round;stroke-linejoin:round;stroke-miterlimit:4;stroke-dasharray:none;stroke-dashoffset:0;stroke-opacity:1;paint-order:stroke fill markers"
       id="rect871"
       width="22.10779"
       height="1.1874487"
       x="23.896519"
       y="288.53677" />
    <path
       style="font-style:normal;font-variant:normal;font-weight:normal;font-stretch:normal;font-size:19.69430923px;line-height:1.25;font-family:'Tw Cen MT';-inkscape-font-specification:'Tw Cen MT';letter-spacing:0px;word-spacing:0px;fill:#16284b;fill-opacity:1;stroke:none;stroke-width:1.86087966"
       d="m 326.29883,57.603516 -13.17969,46.283204 h 6.43945 l 8.06641,-28.494142 13.78711,30.203122 13.74805,-29.994138 7.99218,28.285158 h 6.4375 L 356.41016,57.603516 341.41211,90.738281 Z m 100.78515,0.140625 -22.57421,46.142579 h 6.85546 l 5.49219,-11.369142 h 20.49024 l 5.64257,11.369142 h 6.89454 z m 85.67188,0 -22.57227,46.142579 h 6.85352 l 5.49219,-11.369142 h 20.49023 l 5.64453,11.369142 h 6.89258 z m -278.45313,0.279297 c -7.34765,-10e-7 -13.63464,2.300422 -18.86132,6.904296 -5.20144,4.603874 -7.80274,10.139491 -7.80274,16.603516 0,6.580285 2.65069,12.20723 7.95313,16.880859 5.30243,4.650381 11.69211,6.974611 19.16601,6.974611 5.10044,0 9.83493,-1.06981 14.20313,-3.20899 v -6.939449 c -4.79744,2.487952 -9.34428,3.730469 -13.63672,3.730469 -5.90843,0 -10.83058,-1.649404 -14.76953,-4.951172 -3.9137,-3.32502 -5.8711,-7.465316 -5.8711,-12.417969 0,-4.859645 1.91986,-8.952323 5.75782,-12.277343 3.83795,-3.348272 8.55863,-5.021485 14.16406,-5.021485 4.36819,0 9.15403,1.174997 14.35547,3.523438 v -6.871094 c -5.04994,-1.953159 -9.93652,-2.929687 -14.65821,-2.929687 z m 47.26758,0 c -7.3729,0 -13.68556,2.290471 -18.9375,6.871093 -5.25193,4.580622 -7.8789,10.078573 -7.8789,16.496094 0,6.65004 2.58944,12.312698 7.76562,16.986328 5.17619,4.673627 11.44936,7.009767 18.82227,7.009767 7.4739,0 13.7747,-2.31428 18.90039,-6.941408 5.15093,-4.650377 7.72656,-10.334891 7.72656,-17.054687 0,-6.347766 -2.6013,-11.82386 -7.80273,-16.427734 -5.20144,-4.627126 -11.39955,-6.939453 -18.59571,-6.939453 z m 356.00196,0 c -7.37291,0 -13.68557,2.290471 -18.9375,6.871093 -5.25194,4.580622 -7.87891,10.078573 -7.87891,16.496094 0,6.65004 2.58944,12.312698 7.76562,16.986328 5.17619,4.673627 11.44936,7.009767 18.82227,7.009767 7.47391,0 13.77471,-2.31428 18.90039,-6.941408 5.15094,-4.650377 7.72656,-10.334891 7.72656,-17.054687 0,-6.347766 -2.6013,-11.82386 -7.80273,-16.427734 -5.20144,-4.627126 -11.39955,-6.939453 -18.5957,-6.939453 z m -259.57422,1.429687 v 44.433595 h 6.51562 V 85.611328 c 7.22141,0.06976 12.59786,-1.186618 16.13281,-3.767578 3.56021,-2.58096 5.3418,-5.776534 5.3418,-9.589844 0,-3.790058 -1.6789,-6.872448 -5.03711,-9.24414 -3.35821,-2.371693 -7.77668,-3.556641 -13.25586,-3.556641 z m 79.00586,0 v 44.433595 h 6.59179 V 85.611328 h 1.47657 l 13.4082,18.275392 h 7.53515 L 471.96484,84.878906 c 4.49445,-0.930075 7.80286,-2.533815 9.92383,-4.8125 2.12097,-2.278685 3.18164,-4.90657 3.18164,-7.882812 0,-3.720303 -1.64137,-6.766979 -4.92383,-9.138672 -3.2572,-2.394945 -7.48606,-3.591797 -12.6875,-3.591797 z m 86.12695,0 v 44.433595 h 6.51562 V 85.611328 c 7.22141,0.06976 12.59981,-1.186618 16.13477,-3.767578 3.5602,-2.58096 5.33984,-5.776534 5.33984,-9.589844 0,-3.790058 -1.6789,-6.872448 -5.03711,-9.24414 -3.3582,-2.371693 -7.77667,-3.556641 -13.25586,-3.556641 z m 34.27734,0 v 6.068359 h 11.47657 v 38.365236 h 6.51367 V 65.521484 h 11.51367 v -6.068359 z m 96.23828,0 v 44.433595 h 6.58985 V 85.611328 h 1.47851 l 13.40625,18.275392 h 7.53711 L 688.60742,84.878906 c 4.49444,-0.930075 7.80286,-2.533815 9.92383,-4.8125 2.12097,-2.278685 3.18164,-4.90657 3.18164,-7.882812 0,-3.720303 -1.64137,-6.766979 -4.92383,-9.138672 -3.25721,-2.394945 -7.48802,-3.591797 -12.68945,-3.591797 z m -392.60742,4.777344 c 5.60543,0 10.32807,1.68707 14.16602,5.058593 3.83795,3.348273 5.75586,7.474711 5.75586,12.38086 0,4.720133 -1.89224,8.800908 -5.67969,12.242187 -3.7622,3.418028 -8.24388,5.126953 -13.44531,5.126953 -5.65593,0 -10.44177,-1.673212 -14.35547,-5.021484 -3.88845,-3.371524 -5.83203,-7.488011 -5.83203,-12.347656 0,-4.789889 1.89419,-8.894472 5.68164,-12.3125 3.8127,-3.418028 8.3813,-5.126953 13.70898,-5.126953 z m 356.00196,0 c 5.60542,0 10.32806,1.68707 14.16601,5.058593 3.83795,3.348273 5.75586,7.474711 5.75586,12.38086 0,4.720133 -1.89419,8.800908 -5.68164,12.242187 -3.7622,3.418028 -8.24388,5.126953 -13.44531,5.126953 -5.65593,0 -10.43982,-1.673212 -14.35352,-5.021484 -3.88845,-3.371524 -5.83203,-7.488011 -5.83203,-12.347656 0,-4.789889 1.89224,-8.894472 5.67969,-12.3125 3.8127,-3.418028 8.38325,-5.126953 13.71094,-5.126953 z m -252.52735,0.523437 c 6.11042,0 10.06079,0.756206 11.85352,2.267578 1.81797,1.511373 2.72656,3.301676 2.72656,5.371094 0,2.743723 -1.19894,4.742445 -3.59766,5.998047 -2.37347,1.23235 -6.03348,1.873418 -10.98242,1.919922 z m 165.13281,0 c 6.11043,0 10.06079,0.756206 11.85352,2.267578 1.81798,1.511373 2.72656,3.301676 2.72656,5.371094 0,2.743723 -1.19893,4.742445 -3.59765,5.998047 -2.37347,1.23235 -6.03349,1.873418 -10.98243,1.919922 z m -86.05078,0.07031 c 3.66121,0 6.43831,0.220323 8.33203,0.662109 1.89373,0.418534 3.40869,1.232308 4.54493,2.441406 1.13623,1.185847 1.70312,2.720113 1.70312,4.603516 0,5.371186 -4.85895,7.965312 -14.58008,7.779297 z m 216.64063,0 c 3.6612,0 6.44026,0.220323 8.33398,0.662109 1.89373,0.418534 3.40869,1.232308 4.54492,2.441406 1.13624,1.185847 1.70313,2.720113 1.70313,4.603516 0,5.371186 -4.86091,7.965312 -14.58203,7.779297 z m -253.15235,6.835937 7.76368,15.798828 h -15.52735 z m 85.67188,0 7.76367,15.798828 h -15.52734 z m -0.96484,50.925784 -2.09375,4.0332 h 2.33007 l 3.48243,-4.0332 z m -222.97657,5.10547 -5.48242,19.25 h 2.67774 l 3.35546,-11.85157 5.73243,12.5625 5.71875,-12.47461 3.32421,11.76368 h 2.67774 l -5.48242,-19.25 -6.23828,13.78125 z m 97.59571,0 -5.48243,19.25 h 2.67774 l 3.35547,-11.85157 5.73437,12.5625 5.7168,-12.47461 3.32422,11.76368 h 2.67773 l -5.48242,-19.25 -6.23633,13.78125 z m 139.52539,0.0293 v 19.22071 h 2.74218 v -13.12696 l 14.83789,13.98243 v -19.33594 h -2.74218 v 13.3164 z m -208.78516,0.0293 -9.38867,19.19141 h 2.85156 l 2.28516,-4.72852 h 8.52148 l 2.3457,4.72852 h 2.86719 z m 111.17383,0 -9.38672,19.19141 h 2.84961 l 2.28516,-4.72852 h 8.52148 l 2.3457,4.72852 h 2.86719 z m 35.63086,0 -9.38867,19.19141 h 2.85156 l 2.2832,-4.72852 h 8.52149 l 2.34765,4.72852 h 2.86719 z m -240.58789,0.11719 c -1.64866,0 -3.05193,0.46824 -4.20703,1.40625 -1.15511,0.92833 -1.73243,2.0541 -1.73243,3.3789 0,0.5512 0.0993,1.06923 0.29883,1.55274 0.21002,0.4835 0.53552,0.97167 0.97656,1.46484 0.44105,0.48351 0.962,0.90393 1.56055,1.26172 0.60906,0.34813 1.47405,0.73467 2.59766,1.16016 1.1341,0.41581 1.96006,0.7884 2.47461,1.11718 0.51455,0.32879 0.94448,0.74921 1.29101,1.26172 0.34654,0.50285 0.51953,1.00692 0.51953,1.50977 0,0.8413 -0.33062,1.53669 -0.99218,2.08789 -0.66156,0.5512 -1.49069,0.82812 -2.48828,0.82812 -2.0582,0 -3.5864,-1.04006 -4.58399,-3.11914 l -2.74023,0.71094 c 0.69306,1.69227 1.67981,2.96348 2.96093,3.81445 1.29163,0.84131 2.77688,1.26172 4.45704,1.26172 1.72216,0 3.18691,-0.54194 4.39453,-1.625 1.21811,-1.08305 1.82812,-2.39213 1.82812,-3.92968 0,-0.65757 -0.11663,-1.28122 -0.34765,-1.8711 -0.22052,-0.58988 -0.5614,-1.15173 -1.02344,-1.68359 -0.46205,-0.53186 -1.05473,-1.01602 -1.7793,-1.45117 -0.71407,-0.44483 -1.71814,-0.91708 -3.00976,-1.41993 -1.29163,-0.51251 -2.20469,-0.98271 -2.74024,-1.4082 -0.53555,-0.43515 -0.80273,-0.93327 -0.80273,-1.49414 0,-0.6479 0.305,-1.17393 0.91406,-1.58008 0.61956,-0.41581 1.42111,-0.625 2.4082,-0.625 0.90309,0 1.59191,0.14144 2.06446,0.42188 0.48304,0.27076 1.01936,0.68522 1.60742,1.24609 l 2.2207,-1.63867 c -0.74557,-0.88965 -1.68108,-1.55117 -2.80469,-1.98633 -1.1236,-0.43515 -2.23016,-0.65234 -3.32226,-0.65234 z m 23.18554,0 c -1.64865,0 -3.04997,0.46824 -4.20507,1.40625 -1.15511,0.92833 -1.73438,2.0541 -1.73438,3.3789 0,0.5512 0.10126,1.06923 0.30078,1.55274 0.21002,0.4835 0.53552,0.97167 0.97656,1.46484 0.44105,0.48351 0.96004,0.90393 1.5586,1.26172 0.60906,0.34813 1.476,0.73467 2.59961,1.16016 1.1341,0.41581 1.95811,0.7884 2.47265,1.11718 0.51455,0.32879 0.94449,0.74921 1.29102,1.26172 0.34653,0.50285 0.51953,1.00692 0.51953,1.50977 0,0.8413 -0.33062,1.53669 -0.99219,2.08789 -0.66156,0.5512 -1.49068,0.82812 -2.48828,0.82812 -2.05819,0 -3.58639,-1.04006 -4.58398,-3.11914 l -2.74024,0.71094 c 0.69307,1.69227 1.67982,2.96348 2.96094,3.81445 1.29162,0.84131 2.77688,1.26172 4.45703,1.26172 1.72216,0 3.18887,-0.54194 4.39649,-1.625 1.21811,-1.08305 1.82617,-2.39213 1.82617,-3.92968 0,-0.65757 -0.11468,-1.28122 -0.3457,-1.8711 -0.22052,-0.58988 -0.56335,-1.15173 -1.02539,-1.68359 -0.46205,-0.53186 -1.05473,-1.01602 -1.7793,-1.45117 -0.71407,-0.44483 -1.71619,-0.91708 -3.00781,-1.41993 -1.29163,-0.51251 -2.20664,-0.98271 -2.74219,-1.4082 -0.53555,-0.43515 -0.80274,-0.93327 -0.80274,-1.49414 0,-0.6479 0.30501,-1.17393 0.91407,-1.58008 0.61955,-0.41581 1.42306,-0.625 2.41015,-0.625 0.90309,0 1.58996,0.14144 2.0625,0.42188 0.48305,0.27076 1.01937,0.68522 1.60742,1.24609 l 2.22071,-1.63867 c -0.74557,-0.88965 -1.67913,-1.55117 -2.80274,-1.98633 -1.1236,-0.43515 -2.23211,-0.65234 -3.32422,-0.65234 z m 101.59571,0 c -3.05579,0 -5.67005,0.95641 -7.84375,2.87109 -2.1632,1.91469 -3.24414,4.216 -3.24414,6.9043 0,2.73664 1.10338,5.07779 3.30859,7.02148 2.20521,1.93403 4.86046,2.90039 7.96875,2.90039 2.1212,0 4.09153,-0.44433 5.9082,-1.33398 v -2.88672 c -1.99518,1.0347 -3.8867,1.55273 -5.67187,1.55273 -2.45723,0 -4.50443,-0.68738 -6.14258,-2.06054 -1.62765,-1.38283 -2.44141,-3.10433 -2.44141,-5.16406 0,-2.02106 0.79839,-3.72265 2.39454,-5.10547 1.59614,-1.3925 3.5594,-2.08985 5.89062,-2.08985 1.81667,0 3.8075,0.48816 5.9707,1.46485 v -2.85743 c -2.10019,-0.81229 -4.13397,-1.21679 -6.09765,-1.21679 z m 19.6582,0 c -3.06629,0 -5.6908,0.9524 -7.875,2.85742 -2.1842,1.90501 -3.27734,4.19042 -3.27734,6.85937 0,2.76566 1.07776,5.12076 3.23047,7.06446 2.1527,1.94369 4.76183,2.91601 7.82812,2.91601 3.10829,0 5.72768,-0.96236 7.85938,-2.88672 2.1422,-1.93402 3.21289,-4.29908 3.21289,-7.09375 0,-2.63994 -1.08094,-4.91539 -3.24414,-6.83007 -2.16321,-1.92436 -4.7416,-2.88672 -7.73438,-2.88672 z m 116.98633,0 c -3.05579,0 -5.67005,0.95641 -7.84375,2.87109 -2.1632,1.91469 -3.24414,4.216 -3.24414,6.9043 0,2.73664 1.10143,5.07779 3.30664,7.02148 2.2052,1.93403 4.86241,2.90039 7.9707,2.90039 2.1212,0 4.08958,-0.44433 5.90625,-1.33398 v -2.88672 c -1.99518,1.0347 -3.88475,1.55273 -5.66992,1.55273 -2.45723,0 -4.50443,-0.68738 -6.14258,-2.06054 -1.62765,-1.38283 -2.4414,-3.10433 -2.4414,-5.16406 0,-2.02106 0.79838,-3.72265 2.39453,-5.10547 1.59615,-1.3925 3.5594,-2.08985 5.89062,-2.08985 1.81667,0 3.80555,0.48816 5.96875,1.46485 v -2.85743 c -2.10019,-0.81229 -4.13202,-1.21679 -6.0957,-1.21679 z m 26.73047,0 c -3.06629,0 -5.6908,0.9524 -7.875,2.85742 -2.18421,1.90501 -3.27735,4.19042 -3.27735,6.85937 0,2.76566 1.07777,5.12076 3.23047,7.06446 2.1527,1.94369 4.76184,2.91601 7.82813,2.91601 3.10829,0 5.72767,-0.96236 7.85937,-2.88672 2.1422,-1.93402 3.21289,-4.29908 3.21289,-7.09375 0,-2.63994 -1.08094,-4.91539 -3.24414,-6.83007 -2.1632,-1.92436 -4.74159,-2.88672 -7.73437,-2.88672 z m 116.26953,0 c -3.06629,0 -5.6908,0.9524 -7.875,2.85742 -2.18421,1.90501 -3.27735,4.19042 -3.27735,6.85937 0,2.76566 1.07777,5.12076 3.23047,7.06446 2.1527,1.94369 4.76184,2.91601 7.82813,2.91601 3.10829,0 5.72767,-0.96236 7.85937,-2.88672 2.1422,-1.93402 3.21289,-4.29908 3.21289,-7.09375 0,-2.63994 -1.08093,-4.91539 -3.24414,-6.83007 -2.1632,-1.92436 -4.74159,-2.88672 -7.73437,-2.88672 z m 37.70898,0 c -3.06628,0 -5.69079,0.9524 -7.875,2.85742 -2.1842,1.90501 -3.27734,4.19042 -3.27734,6.85937 0,2.76566 1.07777,5.12076 3.23047,7.06446 2.1527,1.94369 4.76184,2.91601 7.82812,2.91601 3.10829,0 5.72768,-0.96236 7.85938,-2.88672 2.1422,-1.93402 3.21289,-4.29908 3.21289,-7.09375 0,-2.63994 -1.08094,-4.91539 -3.24414,-6.83007 -2.1632,-1.92436 -4.7416,-2.88672 -7.73438,-2.88672 z m 20.70508,0 c -1.64865,0 -3.04997,0.46824 -4.20508,1.40625 -1.1551,0.92833 -1.73242,2.0541 -1.73242,3.3789 0,0.5512 0.0993,1.06923 0.29883,1.55274 0.21002,0.4835 0.53552,0.97167 0.97656,1.46484 0.44104,0.48351 0.96004,0.90393 1.5586,1.26172 0.60905,0.34813 1.476,0.73467 2.5996,1.16016 1.13411,0.41581 1.95811,0.7884 2.47266,1.11718 0.51455,0.32879 0.94644,0.74921 1.29297,1.26172 0.34653,0.50285 0.51953,1.00692 0.51953,1.50977 0,0.8413 -0.33062,1.53669 -0.99219,2.08789 -0.66156,0.5512 -1.49264,0.82812 -2.49023,0.82812 -2.05819,0 -3.58444,-1.04006 -4.58203,-3.11914 l -2.74219,0.71094 c 0.69307,1.69227 1.68177,2.96348 2.96289,3.81445 1.29162,0.84131 2.77688,1.26172 4.45703,1.26172 1.72216,0 3.18692,-0.54194 4.39453,-1.625 1.21812,-1.08305 1.82618,-2.39213 1.82618,-3.92968 0,-0.65757 -0.11469,-1.28122 -0.34571,-1.8711 -0.22052,-0.58988 -0.56139,-1.15173 -1.02344,-1.68359 -0.46204,-0.53186 -1.05472,-1.01602 -1.77929,-1.45117 -0.71407,-0.44483 -1.71815,-0.91708 -3.00977,-1.41993 -1.29162,-0.51251 -2.20468,-0.98271 -2.74023,-1.4082 -0.53555,-0.43515 -0.80274,-0.93327 -0.80274,-1.49414 0,-0.6479 0.30306,-1.17393 0.91211,-1.58008 0.61956,-0.41581 1.42307,-0.625 2.41016,-0.625 0.90308,0 1.59191,0.14144 2.06445,0.42188 0.48305,0.27076 1.01742,0.68522 1.60547,1.24609 l 2.2207,-1.63867 c -0.74557,-0.88965 -1.67912,-1.55117 -2.80273,-1.98633 -1.12361,-0.43515 -2.23212,-0.65234 -3.32422,-0.65234 z m -452.86914,0.59375 v 18.48047 h 2.70899 v -18.48047 z m 21.98828,0 v 2.52344 h 4.77344 v 15.95703 h 2.70898 v -15.95703 h 4.78711 v -2.52344 z m 15.1211,0 v 18.48047 h 11.12109 v -2.4961 h -8.41211 v -6.35351 h 8.41211 v -2.49414 h -8.41211 v -4.61328 h 8.41211 v -2.52344 z m 137.46289,0 v 18.48047 h 2.70898 v -7.60157 c 3.00328,0.029 5.2408,-0.49302 6.71094,-1.5664 1.48064,-1.07339 2.2207,-2.40238 2.2207,-3.98828 0,-1.57623 -0.69907,-2.8574 -2.0957,-3.84375 -1.39663,-0.98636 -3.23301,-1.48047 -5.51172,-1.48047 z m 32.85742,0 v 18.48047 h 2.74219 v -7.60157 h 0.61328 l 5.57617,7.60157 h 3.13476 l -5.84375,-7.90625 c 1.86918,-0.38681 3.24488,-1.05428 4.12696,-2.00196 0.88208,-0.94767 1.32226,-2.03956 1.32226,-3.27734 0,-1.54722 -0.68174,-2.81443 -2.04687,-3.80078 -1.35463,-0.99603 -3.11414,-1.49414 -5.27735,-1.49414 z m 53.35156,0 v 18.48047 h 2.70898 v -18.48047 z m 62.4375,0 v 18.48047 h 4.89844 c 3.70684,0 6.53193,-0.93445 8.47461,-2.80079 1.94268,-1.86633 2.91406,-4.01225 2.91406,-6.43945 0,-2.40786 -0.93868,-4.54977 -2.81836,-6.42578 -1.87968,-1.876 -4.7477,-2.81445 -8.60156,-2.81445 z m 19.2168,0 v 18.48047 h 11.12109 v -2.4961 h -8.41211 v -6.35351 h 8.41211 v -2.49414 h -8.41211 v -4.61328 h 8.41211 v -2.52344 z m 64.69922,0 v 2.52344 h 4.77343 v 15.95703 h 2.70899 v -15.95703 h 4.78906 v -2.52344 z m -43.15039,0.0293 9.15039,19.07422 9.29492,-19.07422 h -2.92969 l -6.33203,13.06836 -6.28516,-13.06836 z m -229.73633,1.95899 c 2.33122,0 4.29643,0.69939 5.89258,2.10156 1.59614,1.3925 2.39257,3.10999 2.39257,5.15039 0,1.96304 -0.78618,3.66062 -2.36132,5.0918 -1.56465,1.42151 -3.4286,2.13086 -5.5918,2.13086 -2.35222,0 -4.34305,-0.69539 -5.9707,-2.08789 -1.61716,-1.40217 -2.42579,-3.11371 -2.42579,-5.13477 0,-1.99204 0.78814,-3.69958 2.36329,-5.12109 1.58564,-1.42151 3.48546,-2.13086 5.70117,-2.13086 z m 143.71679,0 c 2.33122,0 4.29448,0.69939 5.89063,2.10156 1.59615,1.3925 2.39453,3.10999 2.39453,5.15039 0,1.96304 -0.78618,3.66062 -2.36133,5.0918 -1.56464,1.42151 -3.42859,2.13086 -5.59179,2.13086 -2.35222,0 -4.34306,-0.69539 -5.97071,-2.08789 -1.61715,-1.40217 -2.42578,-3.11371 -2.42578,-5.13477 0,-1.99204 0.78814,-3.69958 2.36328,-5.12109 1.58565,-1.42151 3.48547,-2.13086 5.70117,-2.13086 z m 116.26954,0 c 2.33121,0 4.29447,0.69939 5.89062,2.10156 1.59615,1.3925 2.39453,3.10999 2.39453,5.15039 0,1.96304 -0.78618,3.66062 -2.36133,5.0918 -1.56464,1.42151 -3.42859,2.13086 -5.59179,2.13086 -2.35222,0 -4.34305,-0.69539 -5.97071,-2.08789 -1.61715,-1.40217 -2.42578,-3.11371 -2.42578,-5.13477 0,-1.99204 0.78814,-3.69958 2.36328,-5.12109 1.58565,-1.42151 3.48547,-2.13086 5.70118,-2.13086 z m 37.70898,0 c 2.33122,0 4.29448,0.69939 5.89063,2.10156 1.59614,1.3925 2.39453,3.10999 2.39453,5.15039 0,1.96304 -0.78618,3.66062 -2.36133,5.0918 -1.56465,1.42151 -3.4286,2.13086 -5.5918,2.13086 -2.35222,0 -4.34305,-0.69539 -5.9707,-2.08789 -1.61715,-1.40217 -2.42578,-3.11371 -2.42578,-5.13477 0,-1.99204 0.78813,-3.69958 2.36328,-5.12109 1.58565,-1.42151 3.48546,-2.13086 5.70117,-2.13086 z m -254.66211,0.2168 c 2.54124,0 4.18607,0.3148 4.93164,0.94336 0.75607,0.62855 1.13281,1.37178 1.13281,2.23242 0,1.14107 -0.4985,1.9739 -1.49609,2.49609 -0.98709,0.51252 -2.51017,0.77754 -4.56836,0.79688 z m 32.89063,0.0293 c 1.52264,0 2.67727,0.0917 3.46484,0.27539 0.78757,0.17407 1.41808,0.51278 1.89062,1.01563 0.47255,0.49317 0.70704,1.13078 0.70704,1.91406 0,2.2338 -2.01963,3.31174 -6.0625,3.23438 z m 115.78906,0.23242 h 1.38476 c 2.0477,0 3.6752,0.19728 4.88282,0.59375 1.21811,0.39648 2.26318,1.16957 3.13476,2.32032 0.87158,1.15074 1.3086,2.43786 1.3086,3.85937 0,1.13141 -0.27427,2.17147 -0.82032,3.11914 -0.54605,0.93801 -1.28099,1.69118 -2.20507,2.26172 -0.92409,0.57054 -1.9006,0.94313 -2.92969,1.11719 -1.0291,0.16439 -2.56242,0.24609 -4.59961,0.24609 h -0.15625 z m -242.14844,2.60938 3.22852,6.57227 h -6.45703 z m 111.17383,0 3.22851,6.57227 h -6.45703 z m 35.63086,0 3.22851,6.57227 h -6.45898 z"
       transform="matrix(0.26458333,0,0,0.26458333,0,247)"
       id="text876"
       inkscape:connector-curvature="0" />
  </g>
</svg>
